{"count":241,"next":"https://35.188.219.139/api/jobs?org=&page=2&page_size=12","previous":null,"results":[{"url":"https://35.188.219.139/api/jobs/425","id":425,"task_id":1056,"project_id":1,"assignee":null,"dimension":"2d","labels":[{"id":1,"name":"face","color":"#90e8ce","attributes":[]},{"id":2,"name":"features","color":"#9fdec1","attributes":[{"id":1,"name":"features","mutable":false,"input_type":"radio","default_value":"ears-pointy-nose-long","values":["ears-pointy-nose-long","ears-pointy-nose-short","ears-floppy-nose-long","ears-floppy-nose-short","NA"]}]},{"id":3,"name":"reject-image","color":"#98bf44","attributes":[{"id":2,"name":"reject","mutable":true,"input_type":"checkbox","default_value":"false","values":["false"]}]},{"id":4,"name":"animal","color":"#c00000","attributes":[{"id":3,"name":"animal","mutable":false,"input_type":"radio","default_value":"dog","values":["dog","cat"]}]}],"bug_tracker":"","status":"annotation","stage":"annotation","state":"in progress","mode":"annotation","start_frame":0,"stop_frame":297,"data_chunk_size":72,"data_compressed_chunk_type":"imageset"},{"url":"https://35.188.219.139/api/jobs/423","id":423,"task_id":1053,"project_id":1,"assignee":null,"dimension":"2d","labels":[{"id":1,"name":"face","color":"#90e8ce","attributes":[]},{"id":2,"name":"features","color":"#9fdec1","attributes":[{"id":1,"name":"features","mutable":false,"input_type":"radio","default_value":"ears-pointy-nose-long","values":["ears-pointy-nose-long","ears-pointy-nose-short","ears-floppy-nose-long","ears-floppy-nose-short","NA"]}]},{"id":3,"name":"reject-image","color":"#98bf44","attributes":[{"id":2,"name":"reject","mutable":true,"input_type":"checkbox","default_value":"false","values":["false"]}]},{"id":4,"name":"animal","color":"#c00000","attributes":[{"id":3,"name":"animal","mutable":false,"input_type":"radio","default_value":"dog","values":["dog","cat"]}]}],"bug_tracker":"","status":"annotation","stage":"annotation","state":"in progress","mode":"annotation","start_frame":0,"stop_frame":493,"data_chunk_size":31,"data_compressed_chunk_type":"imageset"},{"url":"https://35.188.219.139/api/jobs/420","id":420,"task_id":1045,"project_id":1,"assignee":null,"dimension":"2d","labels":[{"id":1,"name":"face","color":"#90e8ce","attributes":[]},{"id":2,"name":"features","color":"#9fdec1","attributes":[{"id":1,"name":"features","mutable":false,"input_type":"radio","default_value":"ears-pointy-nose-long","values":["ears-pointy-nose-long","ears-pointy-nose-short","ears-floppy-nose-long","ears-floppy-nose-short","NA"]}]},{"id":3,"name":"reject-image","color":"#98bf44","attributes":[{"id":2,"name":"reject","mutable":true,"input_type":"checkbox","default_value":"false","values":["false"]}]},{"id":4,"name":"animal","color":"#c00000","attributes":[{"id":3,"name":"animal","mutable":false,"input_type":"radio","default_value":"dog","values":["dog","cat"]}]}],"bug_tracker":"","status":"annotation","stage":"annotation","state":"in progress","mode":"annotation","start_frame":0,"stop_frame":492,"data_chunk_size":72,"data_compressed_chunk_type":"imageset"},{"url":"https://35.188.219.139/api/jobs/419","id":419,"task_id":1039,"project_id":1,"assignee":null,"dimension":"2d","labels":[{"id":1,"name":"face","color":"#90e8ce","attributes":[]},{"id":2,"name":"features","color":"#9fdec1","attributes":[{"id":1,"name":"features","mutable":false,"input_type":"radio","default_value":"ears-pointy-nose-long","values":["ears-pointy-nose-long","ears-pointy-nose-short","ears-floppy-nose-long","ears-floppy-nose-short","NA"]}]},{"id":3,"name":"reject-image","color":"#98bf44","attributes":[{"id":2,"name":"reject","mutable":true,"input_type":"checkbox","default_value":"false","values":["false"]}]},{"id":4,"name":"animal","color":"#c00000","attributes":[{"id":3,"name":"animal","mutable":false,"input_type":"radio","default_value":"dog","values":["dog","cat"]}]}],"bug_tracker":"","status":"annotation","stage":"annotation","state":"in progress","mode":"annotation","start_frame":0,"stop_frame":491,"data_chunk_size":25,"data_compressed_chunk_type":"imageset"},{"url":"https://35.188.219.139/api/jobs/418","id":418,"task_id":1034,"project_id":1,"assignee":null,"dimension":"2d","labels":[{"id":1,"name":"face","color":"#90e8ce","attributes":[]},{"id":2,"name":"features","color":"#9fdec1","attributes":[{"id":1,"name":"features","mutable":false,"input_type":"radio","default_value":"ears-pointy-nose-long","values":["ears-pointy-nose-long","ears-pointy-nose-short","ears-floppy-nose-long","ears-floppy-nose-short","NA"]}]},{"id":3,"name":"reject-image","color":"#98bf44","attributes":[{"id":2,"name":"reject","mutable":true,"input_type":"checkbox","default_value":"false","values":["false"]}]},{"id":4,"name":"animal","color":"#c00000","attributes":[{"id":3,"name":"animal","mutable":false,"input_type":"radio","default_value":"dog","values":["dog","cat"]}]}],"bug_tracker":"","status":"annotation","stage":"annotation","state":"in progress","mode":"annotation","start_frame":0,"stop_frame":494,"data_chunk_size":60,"data_compressed_chunk_type":"imageset"},{"url":"https://35.188.219.139/api/jobs/417","id":417,"task_id":1031,"project_id":1,"assignee":null,"dimension":"2d","labels":[{"id":1,"name":"face","color":"#90e8ce","attributes":[]},{"id":2,"name":"features","color":"#9fdec1","attributes":[{"id":1,"name":"features","mutable":false,"input_type":"radio","default_value":"ears-pointy-nose-long","values":["ears-pointy-nose-long","ears-pointy-nose-short","ears-floppy-nose-long","ears-floppy-nose-short","NA"]}]},{"id":3,"name":"reject-image","color":"#98bf44","attributes":[{"id":2,"name":"reject","mutable":true,"input_type":"checkbox","default_value":"false","values":["false"]}]},{"id":4,"name":"animal","color":"#c00000","attributes":[{"id":3,"name":"animal","mutable":false,"input_type":"radio","default_value":"dog","values":["dog","cat"]}]}],"bug_tracker":"","status":"validation","stage":"validation","state":"new","mode":"annotation","start_frame":0,"stop_frame":494,"data_chunk_size":28,"data_compressed_chunk_type":"imageset"},{"url":"https://35.188.219.139/api/jobs/416","id":416,"task_id":1027,"project_id":1,"assignee":null,"dimension":"2d","labels":[{"id":1,"name":"face","color":"#90e8ce","attributes":[]},{"id":2,"name":"features","color":"#9fdec1","attributes":[{"id":1,"name":"features","mutable":false,"input_type":"radio","default_value":"ears-pointy-nose-long","values":["ears-pointy-nose-long","ears-pointy-nose-short","ears-floppy-nose-long","ears-floppy-nose-short","NA"]}]},{"id":3,"name":"reject-image","color":"#98bf44","attributes":[{"id":2,"name":"reject","mutable":true,"input_type":"checkbox","default_value":"false","values":["false"]}]},{"id":4,"name":"animal","color":"#c00000","attributes":[{"id":3,"name":"animal","mutable":false,"input_type":"radio","default_value":"dog","values":["dog","cat"]}]}],"bug_tracker":"","status":"annotation","stage":"annotation","state":"in progress","mode":"annotation","start_frame":0,"stop_frame":491,"data_chunk_size":6,"data_compressed_chunk_type":"imageset"},{"url":"https://35.188.219.139/api/jobs/415","id":415,"task_id":1016,"project_id":1,"assignee":null,"dimension":"2d","labels":[{"id":1,"name":"face","color":"#90e8ce","attributes":[]},{"id":2,"name":"features","color":"#9fdec1","attributes":[{"id":1,"name":"features","mutable":false,"input_type":"radio","default_value":"ears-pointy-nose-long","values":["ears-pointy-nose-long","ears-pointy-nose-short","ears-floppy-nose-long","ears-floppy-nose-short","NA"]}]},{"id":3,"name":"reject-image","color":"#98bf44","attributes":[{"id":2,"name":"reject","mutable":true,"input_type":"checkbox","default_value":"false","values":["false"]}]},{"id":4,"name":"animal","color":"#c00000","attributes":[{"id":3,"name":"animal","mutable":false,"input_type":"radio","default_value":"dog","values":["dog","cat"]}]}],"bug_tracker":"","status":"validation","stage":"validation","state":"new","mode":"annotation","start_frame":0,"stop_frame":485,"data_chunk_size":72,"data_compressed_chunk_type":"imageset"},{"url":"https://35.188.219.139/api/jobs/414","id":414,"task_id":1007,"project_id":1,"assignee":null,"dimension":"2d","labels":[{"id":1,"name":"face","color":"#90e8ce","attributes":[]},{"id":2,"name":"features","color":"#9fdec1","attributes":[{"id":1,"name":"features","mutable":false,"input_type":"radio","default_value":"ears-pointy-nose-long","values":["ears-pointy-nose-long","ears-pointy-nose-short","ears-floppy-nose-long","ears-floppy-nose-short","NA"]}]},{"id":3,"name":"reject-image","color":"#98bf44","attributes":[{"id":2,"name":"reject","mutable":true,"input_type":"checkbox","default_value":"false","values":["false"]}]},{"id":4,"name":"animal","color":"#c00000","attributes":[{"id":3,"name":"animal","mutable":false,"input_type":"radio","default_value":"dog","values":["dog","cat"]}]}],"bug_tracker":"","status":"validation","stage":"validation","state":"new","mode":"annotation","start_frame":0,"stop_frame":485,"data_chunk_size":72,"data_compressed_chunk_type":"imageset"},{"url":"https://35.188.219.139/api/jobs/413","id":413,"task_id":1002,"project_id":1,"assignee":null,"dimension":"2d","labels":[{"id":1,"name":"face","color":"#90e8ce","attributes":[]},{"id":2,"name":"features","color":"#9fdec1","attributes":[{"id":1,"name":"features","mutable":false,"input_type":"radio","default_value":"ears-pointy-nose-long","values":["ears-pointy-nose-long","ears-pointy-nose-short","ears-floppy-nose-long","ears-floppy-nose-short","NA"]}]},{"id":3,"name":"reject-image","color":"#98bf44","attributes":[{"id":2,"name":"reject","mutable":true,"input_type":"checkbox","default_value":"false","values":["false"]}]},{"id":4,"name":"animal","color":"#c00000","attributes":[{"id":3,"name":"animal","mutable":false,"input_type":"radio","default_value":"dog","values":["dog","cat"]}]}],"bug_tracker":"","status":"validation","stage":"validation","state":"new","mode":"annotation","start_frame":0,"stop_frame":487,"data_chunk_size":6,"data_compressed_chunk_type":"imageset"},{"url":"https://35.188.219.139/api/jobs/412","id":412,"task_id":995,"project_id":1,"assignee":null,"dimension":"2d","labels":[{"id":1,"name":"face","color":"#90e8ce","attributes":[]},{"id":2,"name":"features","color":"#9fdec1","attributes":[{"id":1,"name":"features","mutable":false,"input_type":"radio","default_value":"ears-pointy-nose-long","values":["ears-pointy-nose-long","ears-pointy-nose-short","ears-floppy-nose-long","ears-floppy-nose-short","NA"]}]},{"id":3,"name":"reject-image","color":"#98bf44","attributes":[{"id":2,"name":"reject","mutable":true,"input_type":"checkbox","default_value":"false","values":["false"]}]},{"id":4,"name":"animal","color":"#c00000","attributes":[{"id":3,"name":"animal","mutable":false,"input_type":"radio","default_value":"dog","values":["dog","cat"]}]}],"bug_tracker":"","status":"validation","stage":"validation","state":"new","mode":"annotation","start_frame":0,"stop_frame":488,"data_chunk_size":6,"data_compressed_chunk_type":"imageset"},{"url":"https://35.188.219.139/api/jobs/411","id":411,"task_id":988,"project_id":1,"assignee":null,"dimension":"2d","labels":[{"id":1,"name":"face","color":"#90e8ce","attributes":[]},{"id":2,"name":"features","color":"#9fdec1","attributes":[{"id":1,"name":"features","mutable":false,"input_type":"radio","default_value":"ears-pointy-nose-long","values":["ears-pointy-nose-long","ears-pointy-nose-short","ears-floppy-nose-long","ears-floppy-nose-short","NA"]}]},{"id":3,"name":"reject-image","color":"#98bf44","attributes":[{"id":2,"name":"reject","mutable":true,"input_type":"checkbox","default_value":"false","values":["false"]}]},{"id":4,"name":"animal","color":"#c00000","attributes":[{"id":3,"name":"animal","mutable":false,"input_type":"radio","default_value":"dog","values":["dog","cat"]}]}],"bug_tracker":"","status":"validation","stage":"validation","state":"new","mode":"annotation","start_frame":0,"stop_frame":486,"data_chunk_size":23,"data_compressed_chunk_type":"imageset"}]}